Antonio Flores - Data Analysis Portfolio - Tidy Tuesday Exercise
…
Mean number of tickets to Hollywood per state

clean_auditions %>% 
  group_by(state) %>% 
  summarise(mean = mean(tickets_to_hollywood)) %>% arrange(desc(mean))

# A tibble: 22 × 2
   state             mean
   <fct>            <dbl>
 1 " Missouri"       35  
 2 " Massachusetts"  28.3
 3 " Alabama"        NA  
 4 " California"     NA  
 5 " Colorado"       NA  
 6 " Florida"        NA  
 7 " Georgia"        NA  
 8 " Illinois"       NA  
 9 " Louisiana"      NA  
10 " Michigan"       NA  
# ℹ 12 more rows
…
clean_elim = eliminations %>% 
  mutate(gender = as.factor(gender)) %>% 
  mutate(place = as.factor(place))

library(stringr)

bin_elim = eliminations

bin_elim = bin_elim %>% 
  select(place, gender) %>% 
  mutate(place = ifelse(str_length(place)>2,substr(place, start = 1, stop = 2),place)) 

bin_elim

# A tibble: 456 × 2
   place gender
   <chr> <chr> 
 1 1     Female
 2 2     Male  
 3 3     Female
 4 4     Female
 5 5     Male  
 6 6     Female
 7 7     Female
 8 8     Male  
 9 9–    Male  
10 9–    Male  
# ℹ 446 more rows
…
