Antonio Flores - Data Analysis Portfolio - R Coding Exercise
…
Additional Data Processing

We need find a a singular year to explore.

In order to do that, we need to identify which years are not missing data for the Infant Mortality variable.

#We start by counting the number of NAs per country, per year
CountNAs = africadata |>
  group_by(year) |> # When we group, we need to summarize
  summarise(sum(is.na(infant_mortality)))#so we use the total number of NA values in this column to group on

CountNAs #Generating table

# A tibble: 57 × 2
    year `sum(is.na(infant_mortality))`
   <int>                          <int>
 1  1960                             10
 2  1961                             17
 3  1962                             16
 4  1963                             16
 5  1964                             15
 6  1965                             14
 7  1966                             13
 8  1967                             11
 9  1968                             11
10  1969                              7
# ℹ 47 more rows
…
